{
  "id": "cfe6383c-f580-78d6-a097-b7f74ac67e03",
  "name": "SF Exchange Azure",
  "values": [
    {
      "enabled": true,
      "key": "ordersPort",
      "value": "9081",
      "type": "text"
    },
    {
      "enabled": true,
      "key": "fulfillmentPort",
      "value": "9080",
      "type": "text"
    },
    {
      "enabled": true,
      "key": "domain",
      "value": "team7-ldn0618cluster.westeurope.cloudapp.azure.com",
      "type": "text"
    },
    {
      "enabled": true,
      "key": "reverseProxyPort",
      "value": "80#",
      "type": "text"
    },
    {
      "enabled": true,
      "key": "protocol",
      "value": "http",
      "type": "text"
    },
    {
      "enabled": true,
      "key": "loggerPort",
      "value": "9082",
      "type": "text"
    }
  ],
  "timestamp": 1527850483730,
  "_postman_variable_scope": "environment",
  "_postman_exported_at": "2018-06-01T12:11:13.498Z",
  "_postman_exported_using": "Postman/5.3.2"
}